{
  "deviceId": "d8a01d5a688c",
  "ruleName": "Rule 1",
  "condition": {
    "type": "condition.temperature",
    "componentId": "temp",
    "min":"10",
    "max":"20",
    "duration": "2"
  },
  "notifyEvent": true,
  "action": {
    "type": "action.usbOn"
  }
}